{
	"timestamp" : "1",
	"dl_ave" : {
		"on" : "true",
		"num" : 5
	},
	"gains" : {
		"gain" : [1,1,1,0.1,0.1,0.1,0.1,0.1]
	},
	"chnames" : {
		"chname" : ["DMS-X", "DMS-Y", "DMS-Z", "N/A", "N/A", "N/A", "N/A", "N/A"]
	},
	"top" : {
		"ymin" : -1.5,
		"ymax" : 1.5,
		"yname" : "Accel",
		"yunit" : "G",
		"yname2" : "",
		"yunit2" : "",
		"xname" : "Time",
		"xunit" : "s",
		"xscale" : "linear",
		"yscale" : "linear",
		"vline" : {},
		"hline" : {
			"1" : {
				"y" : 1,
				"ls" : "--",
				"lw" : 0.5,
				"color" : "black",
				"alpha" : 0.7
			},
			"2" : {
				"y" : -1,
				"ls" : "--",
				"lw" : 0.5,
				"color" : "black",
				"alpha" : 0.7
			}
		}
	},
	"middle" : {
		"name" : "broad",
		"xmin" : 0.5,
		"xmax" : 5000,
		"ymin" : 1e-7,
		"ymax" : 1e-1,
		"yname" : "Power",
		"yunit" : "$G/\\sqrt{\\rm Hz}$",
		"xname" : "Freq",
		"xunit" : "Hz",
		"xscale" : "log",
		"yscale" : "log",
		"vline" : {},
		"hline" : {
			"1" : {
				"y" : 2e-5, 
				"ls" : "--",
				"lw" : 0.5,
				"color" : "black",
				"alpha" : 0.5
			}
		}
	},
	"bottom" : {
		"name" : "narrow",
		"xmin" : 0.0,
		"xmax" : 110.0,
		"ymin" : 1e-7,
		"ymax" : 1e-1,
		"yname" : "Power",
		"yunit" : "$G/\\sqrt{\\rm Hz}$",
		"xname" : "Freq",
		"xunit" : "Hz",
		"xscale" : "linear",
		"yscale" : "log",
		"vline" : {
			"SC/PC" : {
				"x" : 15.0,
				"ls" : "-",
				"lw" : 0.75,
				"color" : "blue",
				"alpha" : 0.7
			},
			"JTC" : {
				"x" : 52.0,
				"ls" : "-",
				"lw" : 0.75,
				"color" : "green",
				"alpha" : 0.7
			}

		},
		"hline" : {
			"1" : {
				"y" : 2e-5,
				"ls" : "--",
				"lw" : 0.75,
				"color" : "black",
				"alpha" : 0.7
			}
		}
	}
}
